<?xml version="1.0" encoding="UTF-8"?>
<svg width="44px" height="44px" viewBox="0 0 44 44" version="1.1" xmlns="http://www.w3.org/2000/svg" xmlns:xlink="http://www.w3.org/1999/xlink">
    <!-- Generator: Sketch 47.1 (45422) - http://www.bohemiancoding.com/sketch -->
    <title>Group 3</title>
    <desc>Created with Sketch.</desc>
    <defs></defs>
    <g id="錄播＿學生端" stroke="none" stroke-width="1" fill="none" fill-rule="evenodd">
        <g id="Group-3">
            <circle id="Oval-Copy-4" fill="#387FD7" cx="22" cy="22" r="22"></circle>
            <g id="Group" transform="translate(12.000000, 12.000000)">
                <g id="artboard" transform="translate(3.000000, 4.000000)"></g>
                <path d="M13.261807,2.98383507 L11.1450893,2.98383507 L10.7790179,1.60217739 C10.6808036,1.23027932 10.3415179,0.989109058 9.97767857,1.0003787 C9.62723214,1.00488655 9.30803571,1.24380289 9.21428571,1.60217739 L8.84598214,2.98383507 L2.85714286,2.98383507 C2.06919643,2.98383507 1.42857143,3.63071231 1.42857143,4.42634879 L1.42857143,14.4337877 L0.803571429,14.4337877 C0.359375,14.4337877 0,14.7966701 0,15.2452017 C0,15.6937333 0.359375,16.0566157 0.803571429,16.0566157 L5.375,16.0566157 L4.33482143,19.9784499 C4.22098214,20.411204 4.47544643,20.8552277 4.90401786,20.972432 C5.33258929,21.0873823 5.77232143,20.8326885 5.88839286,20.3976804 L6.10714286,19.570489 L13.8816964,19.570489 L14.1004464,20.3976804 C14.2142857,20.8304345 14.65625,21.0873823 15.0848214,20.972432 C15.5133929,20.8574817 15.7678571,20.411204 15.6540179,19.9784499 L14.6138393,16.0566157 L19.1964286,16.0566157 C19.640625,16.0566157 20,15.6937333 20,15.2452017 C20,14.7966701 19.640625,14.4337877 19.1964286,14.4337877 L18.5714286,14.4337877 L18.5714286,8.87166612 C18.2280465,8.95553438 17.869216,9 17.5,9 C17.3340584,9 17.1702148,8.99101799 17.0089286,8.97351362 L17.0089286,14.4788663 L3.01339286,14.4788663 L3.01339286,4.53904517 L13.0001659,4.53904517 C13.0000554,4.52604319 13,4.51302806 13,4.5 C13,3.96800109 13.0923177,3.45756413 13.261807,2.98383507 Z M6.53794643,17.947661 L7.04017857,16.0566157 L12.9508929,16.0566157 L13.453125,17.947661 L6.53794643,17.947661 Z" id="Shape" fill="#FFFFFF" fill-rule="nonzero"></path>
                <g id="change" transform="translate(17.500000, 4.500000) rotate(-181.000000) translate(-17.500000, -4.500000) translate(14.000000, 1.000000)" fill-rule="nonzero" fill="#FFFFFF">
                    <path d="M6.90954096,3.49067062 C6.90954096,2.53291364 6.43082227,1.6419769 5.63295777,1.10741487 C5.45058875,0.973774357 5.19983134,1.0183212 5.06305457,1.19650854 C4.92627779,1.37469589 4.97187005,1.61970349 5.15423908,1.753344 C5.72414229,2.15426553 6.08888034,2.77792123 6.08888034,3.49067062 C6.08888034,4.42615419 5.47338487,5.20572382 4.62992813,5.47300484 C4.74390877,5.2948175 4.69831651,5.04980989 4.51594749,4.91616939 C4.33357846,4.78252888 4.08282105,4.84934913 3.94604428,5.02753648 L3.44452945,5.76255928 C3.33054881,5.94074663 3.37614107,6.18575422 3.5585101,6.31939474 L4.37917071,6.85395678 C4.56153974,6.96532386 4.81229715,6.92077703 4.94907392,6.74258968 C5.06305457,6.58667575 5.04025844,6.36394157 4.88068554,6.23030106 C6.06608421,5.85165295 6.90954096,4.76025546 6.90954096,3.49067062 Z M3.80926751,1.95380476 L4.35637459,1.15196171 C4.47035523,0.973774357 4.42476297,0.728766762 4.24239394,0.595126247 L3.42173333,0.0605642093 C3.2393643,-0.050802878 2.98860689,-0.00625604452 2.85183012,0.171931304 C2.73784948,0.350118652 2.78344173,0.595126247 2.96581076,0.728766762 L2.98860689,0.728766762 C1.82600434,1.10741487 0.982547594,2.19881236 0.982547594,3.4683972 C0.982547594,4.4484276 1.48406242,5.33936434 2.30472304,5.87392637 C2.48709207,5.98529346 2.73784948,5.94074663 2.87462625,5.76255928 C2.98860689,5.58437193 2.94301463,5.33936434 2.7606456,5.20572382 C2.16794627,4.82707571 1.80320822,4.15887317 1.80320822,3.44612379 C1.80320822,2.57746047 2.3503153,1.82016425 3.12538366,1.5083364 C3.03419915,1.68652374 3.0797914,1.90925793 3.26216043,2.02062501 C3.42173333,2.17653894 3.67249074,2.13199211 3.80926751,1.95380476 Z" id="Shape"></path>
                </g>
            </g>
        </g>
    </g>
</svg>