<?xml version="1.0" encoding="UTF-8"?>
<svg width="14px" height="12px" viewBox="0 0 14 12" version="1.1" xmlns="http://www.w3.org/2000/svg" xmlns:xlink="http://www.w3.org/1999/xlink">
    <!-- Generator: Sketch 47.1 (45422) - http://www.bohemiancoding.com/sketch -->
    <title>Shape</title>
    <desc>Created with Sketch.</desc>
    <defs></defs>
    <g id="會員帳戶" stroke="none" stroke-width="1" fill="none" fill-rule="evenodd">
        <g id="修改帳戶" transform="translate(-587.000000, -453.000000)" fill-rule="nonzero" fill="#7D97AD">
            <path d="M593.999976,456.994328 C592.580838,456.994328 591.432777,458.22334 591.432777,459.742544 C591.432777,461.261748 592.580838,462.49076 593.999976,462.49076 C595.419115,462.49076 596.567176,461.261748 596.567176,459.742544 C596.567176,458.240407 595.419115,456.994328 593.999976,456.994328 L593.999976,456.994328 Z M599.596788,455.253215 L598.560353,455.253215 C598.337117,455.253215 598.081998,455.065437 598.002256,454.826461 L597.571743,453.426754 C597.492002,453.187778 597.252824,453 597.013647,453 L591.145789,453 C590.922554,453 590.667434,453.187778 590.587693,453.426754 L590.157164,454.826461 C590.077423,455.065437 589.838261,455.253215 589.599099,455.253215 L588.403196,455.253215 C587.637806,455.253215 587,455.936027 587,456.755352 L587,463.497863 C587,464.317204 587.637806,465 588.403196,465 L599.596804,465 C600.362194,465 601,464.317187 601,463.497863 L601,456.755352 C601,455.93601 600.37812,455.253215 599.596788,455.253215 L599.596788,455.253215 Z M593.999976,463.497879 C592.070568,463.497879 590.492009,461.825064 590.492009,459.742561 C590.492009,457.677107 592.054642,455.987226 593.999976,455.987226 C595.929385,455.987226 597.507944,457.660041 597.507944,459.742561 C597.507959,461.825047 595.929385,463.497879 593.999976,463.497879 L593.999976,463.497879 Z M599.006823,458.03558 C598.671962,458.03558 598.416859,457.745405 598.416859,457.404016 C598.416859,457.045543 598.68792,456.772418 599.006823,456.772418 C599.341684,456.772418 599.596788,457.062643 599.596788,457.404016 C599.596788,457.745405 599.341684,458.03558 599.006823,458.03558 Z" id="Shape"></path>
        </g>
    </g>
</svg>