<?xml version="1.0" encoding="UTF-8"?>
<svg width="14px" height="12px" viewBox="0 0 14 12" version="1.1" xmlns="http://www.w3.org/2000/svg" xmlns:xlink="http://www.w3.org/1999/xlink">
    <!-- Generator: Sketch 48.2 (47327) - http://www.bohemiancoding.com/sketch -->
    <title>Shape</title>
    <desc>Created with Sketch.</desc>
    <defs></defs>
    <g id="全部課程＿收藏" stroke="none" stroke-width="1" fill="none" fill-rule="evenodd" transform="translate(-1081.000000, -86.000000)">
        <g id="love-(1)" transform="translate(1081.000000, 86.000000)" fill="#387FD7" fill-rule="nonzero">
            <path d="M10.2419864,0 C9.00814903,0 7.86098615,0.577460119 6.99990086,1.62891306 C6.13960878,0.578256242 4.99465777,0.00163819503 3.76274245,0.00163819503 C1.93853641,0.00163819503 0,1.3763996 0,3.92477519 C0,6.54615047 2.31613929,8.37569024 4.00720653,9.71150214 C4.64760907,10.2184275 5.11740844,10.5776847 5.4994198,10.8700203 C6.10348678,11.3316271 6.4064508,11.5632878 6.73324189,11.8893675 C6.80406722,11.9607443 6.89894845,12 6.9998551,12 C7.10047192,12 7.19509382,11.9610046 7.26645304,11.8896584 C7.69851349,11.4584886 8.09092822,11.1598757 9.1420658,10.3600941 L9.98730195,9.71565125 C11.3895611,8.64610148 14,6.65489982 14,3.8987476 C14.000061,1.36626417 12.0637212,0 10.2419864,0 Z" id="Shape"></path>
        </g>
    </g>
</svg>