<?xml version="1.0" encoding="UTF-8"?>
<svg width="12px" height="15px" viewBox="0 0 12 15" version="1.1" xmlns="http://www.w3.org/2000/svg" xmlns:xlink="http://www.w3.org/1999/xlink">
    <!-- Generator: Sketch 48.2 (47327) - http://www.bohemiancoding.com/sketch -->
    <title>Shape</title>
    <desc>Created with Sketch.</desc>
    <defs></defs>
    <g id="全部課程＿收藏" stroke="none" stroke-width="1" fill="none" fill-rule="evenodd" transform="translate(-1222.000000, -83.000000)">
        <g id="icon_teacher" transform="translate(1222.000000, 83.000000)" fill="#7D97AD" fill-rule="nonzero">
            <path d="M0,15 L1.52646001,11.3265247 C1.52646001,11.3265247 1.85400725,10.1020272 3.02913668,10.1020272 L9.18827793,10.1020272 C10.3633742,10.1020272 10.7280632,11.3265247 10.7280632,11.3265247 L12,15 L0,15 Z M5.97885188,9.79591139 C3.35583865,9.79591139 1.22964051,7.60281348 1.22964051,4.8979557 C1.22964051,2.19248257 3.35583865,0 5.97885188,0 C8.60158335,0 10.7280632,2.19248257 10.7280632,4.8979557 C10.7280632,7.60281348 8.60156678,9.79591139 5.97885188,9.79591139 Z M5.1996862,1.33149868 C3.74396301,1.86720565 5.52663679,3.77928003 2.33575677,4.89793859 C2.33575677,6.97265143 3.96658176,8.65510049 5.97885188,8.65510049 C7.99112199,8.65510049 9.62191382,6.97265143 9.62191382,4.89793859 C7.7667464,3.32009776 4.65152561,4.04833856 5.1996862,1.33149868 Z" id="Shape"></path>
        </g>
    </g>
</svg>