<?xml version="1.0" encoding="UTF-8"?>
<svg width="14px" height="17px" viewBox="0 0 14 17" version="1.1" xmlns="http://www.w3.org/2000/svg" xmlns:xlink="http://www.w3.org/1999/xlink">
    <!-- Generator: Sketch 47.1 (45422) - http://www.bohemiancoding.com/sketch -->
    <title>Rectangle 23</title>
    <desc>Created with Sketch.</desc>
    <defs>
        <polygon id="path-1" points="0 0 8.78211021 0 14 5.23308818 14 16.9166667 0 16.9166667"></polygon>
    </defs>
    <g id="錄播＿學生端" stroke="none" stroke-width="1" fill="none" fill-rule="evenodd">
        <g id="（付費/旁聽）學生端_白板＿選擇講義" transform="translate(-1187.000000, -86.000000)">
            <g id="item2_hover" transform="translate(1165.000000, 76.000000)">
                <g id="icon" transform="translate(22.000000, 10.000000)">
                    <g id="Rectangle-23">
                        <use fill-opacity="0.116479846" fill="#FFFFFF" fill-rule="evenodd" xlink:href="#path-1"></use>
                        <path stroke="#ABABAB" stroke-width="1" d="M0.5,0.5 L0.5,16.4166667 L13.5,16.4166667 L13.5,5.43976914 L8.57457736,0.5 L0.5,0.5 Z"></path>
                    </g>
                </g>
            </g>
        </g>
    </g>
</svg>