<?xml version="1.0" encoding="UTF-8"?>
<svg width="48px" height="43px" viewBox="0 0 48 43" version="1.1" xmlns="http://www.w3.org/2000/svg" xmlns:xlink="http://www.w3.org/1999/xlink">
    <!-- Generator: Sketch 48.2 (47327) - http://www.bohemiancoding.com/sketch -->
    <title>Path 12 Copy 9</title>
    <desc>Created with Sketch.</desc>
    <defs></defs>
    <g id="老師介紹" stroke="none" stroke-width="1" fill="none" fill-rule="evenodd" transform="translate(-210.000000, -585.000000)">
        <g id="老師簡介" transform="translate(207.000000, 553.000000)" fill="#FFAB40">
            <polygon id="Path-12-Copy-9" transform="translate(26.501550, 55.557093) scale(-1, -1) rotate(124.000000) translate(-26.501550, -55.557093) " points="16.205943 35.0570933 9.5015496 64.3378 40.0424797 76.0570933 43.5015496 39.8937306"></polygon>
        </g>
    </g>
</svg>