<?xml version="1.0" encoding="UTF-8"?>
<svg width="56px" height="47px" viewBox="0 0 56 47" version="1.1" xmlns="http://www.w3.org/2000/svg" xmlns:xlink="http://www.w3.org/1999/xlink">
    <!-- Generator: Sketch 47.1 (45422) - http://www.bohemiancoding.com/sketch -->
    <title>Path 12 Copy 9</title>
    <desc>Created with Sketch.</desc>
    <defs></defs>
    <g id="課程內容頁" stroke="none" stroke-width="1" fill="none" fill-rule="evenodd">
        <g id="錄播課程＿未登入＿未購買-" transform="translate(-801.000000, -1059.000000)" fill="#FFFFFF">
            <g id="老師簡介" transform="translate(-7.000000, 969.000000)">
                <polygon id="Path-12-Copy-9" transform="translate(835.000000, 116.000000) scale(-1, -1) rotate(124.000000) translate(-835.000000, -116.000000) " points="824.098769 91 817 126.708179 849.337455 141 853 96.8983382"></polygon>
            </g>
        </g>
    </g>
</svg>