<?xml version="1.0" encoding="UTF-8"?>
<svg width="4px" height="8px" viewBox="0 0 4 8" version="1.1" xmlns="http://www.w3.org/2000/svg" xmlns:xlink="http://www.w3.org/1999/xlink">
    <!-- Generator: Sketch 47.1 (45422) - http://www.bohemiancoding.com/sketch -->
    <title>Shape Copy</title>
    <desc>Created with Sketch.</desc>
    <defs></defs>
    <g id="錄播＿學生端" stroke="none" stroke-width="1" fill="none" fill-rule="evenodd">
        <g id="（付費/旁聽）學生端_白板＿選擇講義" transform="translate(-683.000000, -686.000000)" fill-rule="nonzero" fill="#E3E3E3">
            <g id="slider" transform="translate(650.000000, 670.000000)">
                <polygon id="Shape-Copy" transform="translate(35.000000, 20.000000) scale(-1, 1) translate(-35.000000, -20.000000) " points="34 16 33 17 34 20 33 23 34 24 37 20"></polygon>
            </g>
        </g>
    </g>
</svg>