<?xml version="1.0" encoding="UTF-8"?>
<svg width="73px" height="57px" viewBox="0 0 73 57" version="1.1" xmlns="http://www.w3.org/2000/svg" xmlns:xlink="http://www.w3.org/1999/xlink">
    <!-- Generator: Sketch 48.2 (47327) - http://www.bohemiancoding.com/sketch -->
    <title>Group</title>
    <desc>Created with Sketch.</desc>
    <defs></defs>
    <g id="修改成功" stroke="none" stroke-width="1" fill="none" fill-rule="evenodd" transform="translate(-682.000000, -569.000000)">
        <g id="check" transform="translate(682.000000, 569.000000)">
            <g id="Group">
                <path d="M38.5,57 C53.7166667,57 66,44.7166667 66,29.5 C66,14.2833333 53.7166667,2 38.5,2 C23.2833333,2 11,14.2833333 11,29.5 C11,44.7166667 23.2833333,57 38.5,57 Z" id="Shape" fill="#387FD7" fill-rule="nonzero"></path>
                <polygon id="Shape" fill="#FFFFFF" fill-rule="nonzero" points="27.0907738 27.1166667 24.75 29.5 33.3928572 38.6666667 49.9583333 22.9 47.6175595 20.3333333 33.3928572 33.7166667"></polygon>
                <path d="M0.980151714,17 C1.23110706,17 1.4820624,16.9041752 1.67370102,16.7125257 L2.49957224,15.8866073 L3.32430274,16.7125257 C3.51708207,16.9041752 3.76803742,17 4.01899276,17 C4.2699481,17 4.52090344,16.9041752 4.71254206,16.7125257 C5.09581931,16.3292266 5.09581931,15.708647 4.71254206,15.3264887 L3.88667085,14.5005704 L4.71254206,13.6735113 C5.09581931,13.2902122 5.09581931,12.6707734 4.71254206,12.2874743 C4.3269834,11.9041752 3.7098614,11.9041752 3.32430274,12.2874743 L2.49957224,13.1133927 L1.67370102,12.2874743 C1.28928307,11.9041752 0.671020362,11.9041752 0.286602407,12.2874743 C-0.0955341356,12.6707734 -0.0955341356,13.2902122 0.286602407,13.6735113 L1.11247362,14.5005704 L0.286602407,15.3264887 C-0.0955341356,15.708647 -0.0955341356,16.3292266 0.286602407,16.7125257 C0.479381737,16.9041752 0.729196373,17 0.980151714,17 Z" id="Fill-63" fill="#005BAB"></path>
                <path d="M68.9801517,49 C69.2311071,49 69.4820624,48.9041752 69.673701,48.7125257 L70.4995722,47.8866073 L71.3243027,48.7125257 C71.5170821,48.9041752 71.7680374,49 72.0189928,49 C72.2699481,49 72.5209034,48.9041752 72.7125421,48.7125257 C73.0958193,48.3292266 73.0958193,47.708647 72.7125421,47.3264887 L71.8866708,46.5005704 L72.7125421,45.6735113 C73.0958193,45.2902122 73.0958193,44.6707734 72.7125421,44.2874743 C72.3269834,43.9041752 71.7098614,43.9041752 71.3243027,44.2874743 L70.4995722,45.1133927 L69.673701,44.2874743 C69.2892831,43.9041752 68.6710204,43.9041752 68.2866024,44.2874743 C67.9044659,44.6707734 67.9044659,45.2902122 68.2866024,45.6735113 L69.1124736,46.5005704 L68.2866024,47.3264887 C67.9044659,47.708647 67.9044659,48.3292266 68.2866024,48.7125257 C68.4793817,48.9041752 68.7291964,49 68.9801517,49 Z" id="Fill-63-Copy" fill="#005BAB"></path>
                <path d="M9.99938004,6.48809524 C9.58276503,5.93253968 9.06819591,5.41790675 8.51270924,5.00248016 C9.06819591,4.58581349 9.58276503,4.06994048 9.99938004,3.51438492 C10.4147551,4.06994048 10.9305642,4.58581349 11.4860508,5.00248016 C10.9305642,5.41790675 10.4147551,5.93253968 9.99938004,6.48809524 M11.0024799,1.00322421 C11.0024799,0.44890873 10.5523869,0 9.99938004,0 C9.44513329,0 8.9950403,0.44890873 8.9950403,1.00322421 C8.9950403,2.03993056 7.03719777,4.00049603 6.00309981,4.00049603 C5.44885307,4.00049603 5,4.44816468 5,5.00248016 C5,5.55679563 5.44885307,6.00570437 6.00309981,6.00570437 C7.03719777,6.00570437 8.9950403,7.9625496 8.9950403,8.99677579 C8.9950403,9.55109127 9.44513329,10 9.99938004,10 C10.5523869,10 11.0024799,9.55109127 11.0024799,8.99677579 C11.0024799,7.9625496 12.9615623,6.00570437 13.9981401,6.00570437 C14.5511469,6.00570437 15,5.55679563 15,5.00248016 C15,4.44816468 14.5511469,4.00049603 13.9981401,4.00049603 C12.9615623,4.00049603 11.0024799,2.03993056 11.0024799,1.00322421" id="Fill-85-Copy" fill="#005BAB"></path>
            </g>
        </g>
    </g>
</svg>